^E:\CPET_222\MORE\LAB01HUFFMAN\LAB01HUFFMAN\LAB01HUFFMAN\DEBUG\HUFFMAN.OBJ
E:\CPET_222\MORE\LAB01HUFFMAN\LAB01HUFFMAN\DEBUG\LAB01HUFFMAN.ILK
E:\CPET_222\MORE\LAB01HUFFMAN\LAB01HUFFMAN\DEBUG\LAB01HUFFMAN.EXE
E:\CPET_222\MORE\LAB01HUFFMAN\LAB01HUFFMAN\DEBUG\LAB01HUFFMAN.PDB
