^E:\CPET_222\MORE\LAB01HUFFMAN\LAB01HUFFMAN\LAB01HUFFMAN\DEBUG\HUFFMAN.OBJ
C:\WINDOWS\GLOBALIZATION\SORTING\SORTDEFAULT.NLS
C:\PROGRAM FILES (X86)\WINDOWS KITS\8.1\LIB\WINV6.3\UM\X86\KERNEL32.LIB
C:\PROGRAM FILES (X86)\WINDOWS KITS\8.1\LIB\WINV6.3\UM\X86\USER32.LIB
C:\PROGRAM FILES (X86)\WINDOWS KITS\8.1\LIB\WINV6.3\UM\X86\GDI32.LIB
C:\PROGRAM FILES (X86)\WINDOWS KITS\8.1\LIB\WINV6.3\UM\X86\WINSPOOL.LIB
C:\PROGRAM FILES (X86)\WINDOWS KITS\8.1\LIB\WINV6.3\UM\X86\COMDLG32.LIB
C:\PROGRAM FILES (X86)\WINDOWS KITS\8.1\LIB\WINV6.3\UM\X86\ADVAPI32.LIB
C:\PROGRAM FILES (X86)\WINDOWS KITS\8.1\LIB\WINV6.3\UM\X86\SHELL32.LIB
C:\PROGRAM FILES (X86)\WINDOWS KITS\8.1\LIB\WINV6.3\UM\X86\OLE32.LIB
C:\PROGRAM FILES (X86)\WINDOWS KITS\8.1\LIB\WINV6.3\UM\X86\OLEAUT32.LIB
C:\PROGRAM FILES (X86)\WINDOWS KITS\8.1\LIB\WINV6.3\UM\X86\UUID.LIB
C:\PROGRAM FILES (X86)\WINDOWS KITS\8.1\LIB\WINV6.3\UM\X86\ODBC32.LIB
C:\PROGRAM FILES (X86)\WINDOWS KITS\8.1\LIB\WINV6.3\UM\X86\ODBCCP32.LIB
E:\CPET_222\MORE\LAB01HUFFMAN\LAB01HUFFMAN\LAB01HUFFMAN\DEBUG\HUFFMAN.OBJ
C:\WINDOWS\SYSTEM32\TZRES.DLL
C:\VISUAL STUDIO 2017\VC\TOOLS\MSVC\14.12.25827\LIB\X86\MSVCPRTD.LIB
C:\VISUAL STUDIO 2017\VC\TOOLS\MSVC\14.12.25827\LIB\X86\MSVCRTD.LIB
C:\VISUAL STUDIO 2017\VC\TOOLS\MSVC\14.12.25827\LIB\X86\OLDNAMES.LIB
C:\VISUAL STUDIO 2017\VC\TOOLS\MSVC\14.12.25827\LIB\X86\VCRUNTIMED.LIB
C:\PROGRAM FILES (X86)\WINDOWS KITS\10\LIB\10.0.10240.0\UCRT\X86\UCRTD.LIB
C:\PROGRAM FILES (X86)\WINDOWS KITS\8.1\BIN\X86\RC.EXE
C:\VISUAL STUDIO 2017\VC\TOOLS\MSVC\14.12.25827\BIN\HOSTX86\X86\CVTRES.EXE
