^D:\MSARGENT\CPET222\CPET222LAB01PRELAB\CPET222LAB01PRELAB\DEBUG\SOURCE.OBJ
/OUT:"D:\MSARGENT\CPET222\CPET222LAB01PRELAB\DEBUG\CPET222LAB01PRELAB.EXE" /INCREMENTAL /NOLOGO KERNEL32.LIB USER32.LIB GDI32.LIB WINSPOOL.LIB COMDLG32.LIB ADVAPI32.LIB SHELL32.LIB OLE32.LIB OLEAUT32.LIB UUID.LIB ODBC32.LIB ODBCCP32.LIB /MANIFEST /MANIFESTUAC:"level='asInvoker' uiAccess='false'" /manifest:embed /DEBUG:FASTLINK /PDB:"D:\MSARGENT\CPET222\CPET222LAB01PRELAB\DEBUG\CPET222LAB01PRELAB.PDB" /SUBSYSTEM:CONSOLE /TLBID:1 /DYNAMICBASE /NXCOMPAT /IMPLIB:"D:\MSARGENT\CPET222\CPET222LAB01PRELAB\DEBUG\CPET222LAB01PRELAB.LIB" /MACHINE:X86 DEBUG\SOURCE.OBJ
^C:\USERS\MICHAEL\DESKTOP\CPET222LAB01PRELAB\CPET222LAB01PRELAB\DEBUG\SOURCE.OBJ
/OUT:"C:\USERS\MICHAEL\DESKTOP\CPET222LAB01PRELAB\DEBUG\CPET222LAB01PRELAB.EXE" /INCREMENTAL /NOLOGO KERNEL32.LIB USER32.LIB GDI32.LIB WINSPOOL.LIB COMDLG32.LIB ADVAPI32.LIB SHELL32.LIB OLE32.LIB OLEAUT32.LIB UUID.LIB ODBC32.LIB ODBCCP32.LIB /MANIFEST /MANIFESTUAC:"level='asInvoker' uiAccess='false'" /manifest:embed /DEBUG:FASTLINK /PDB:"C:\USERS\MICHAEL\DESKTOP\CPET222LAB01PRELAB\DEBUG\CPET222LAB01PRELAB.PDB" /SUBSYSTEM:CONSOLE /TLBID:1 /DYNAMICBASE /NXCOMPAT /IMPLIB:"C:\USERS\MICHAEL\DESKTOP\CPET222LAB01PRELAB\DEBUG\CPET222LAB01PRELAB.LIB" /MACHINE:X86 DEBUG\SOURCE.OBJ
