^C:\USERS\KGITLITZ\DOCUMENTS\_ROOT\PROJECTS\CPP\KDG_LAB03_CRC\KDG_LAB03_CRC\DEBUG\KDG_LAB03_CRC.EXE.EMBED.MANIFEST.RES|C:\USERS\KGITLITZ\DOCUMENTS\_ROOT\PROJECTS\CPP\KDG_LAB03_CRC\KDG_LAB03_CRC\DEBUG\KDG_LAB03_CRC.OBJ
/ERRORREPORT:PROMPT /OUT:"C:\Users\kgitlitz\Documents\_root\Projects\CPP\KDG_Lab03_CRC\Debug\KDG_Lab03_CRC.exe" /INCREMENTAL /NOLOGO kernel32.lib user32.lib gdi32.lib winspool.lib comdlg32.lib advapi32.lib shell32.lib ole32.lib oleaut32.lib uuid.lib odbc32.lib odbccp32.lib /MANIFEST /ManifestFile:"Debug\KDG_Lab03_CRC.exe.intermediate.manifest" /MANIFESTUAC:"level='asInvoker' uiAccess='false'" /DEBUG /PDB:"C:\Users\kgitlitz\Documents\_root\Projects\CPP\KDG_Lab03_CRC\Debug\KDG_Lab03_CRC.pdb" /SUBSYSTEM:CONSOLE /TLBID:1 /DYNAMICBASE /NXCOMPAT /IMPLIB:"C:\Users\kgitlitz\Documents\_root\Projects\CPP\KDG_Lab03_CRC\Debug\KDG_Lab03_CRC.lib" /MACHINE:X86 Debug\KDG_Lab03_CRC.exe.embed.manifest.res
Debug\KDG_Lab03_CRC.obj
