^C:\USERS\SHOUGH\DOCUMENTS\C DRIVE\MY DOCUMENTS\NHTI\COURSES\CP222_SPR_2011\LABS\LAB3 - CRC8\CONVERT STRING TO BYTE ARRAY EXAMPLE\STRINGTOBYTE\STRINGTOBYTE\FORM1.RESX
^C:\USERS\SHOUGH\DOCUMENTS\C DRIVE\MY DOCUMENTS\NHTI\COURSES\CP222_SPR_2011\LABS\LAB3 - CRC8\CONVERT STRING TO BYTE ARRAY EXAMPLE\STRINGTOBYTE\STRINGTOBYTE\PROPERTIES\RESOURCES.RESX
C:\WINDOWS\MICROSOFT.NET\FRAMEWORK\V2.0.50727\CONFIG\SECURITY.CONFIG
C:\WINDOWS\MICROSOFT.NET\FRAMEWORK\V2.0.50727\CONFIG\ENTERPRISESEC.CONFIG
