^C:\USERS\SHOUGH\DOCUMENTS\C DRIVE\MY DOCUMENTS\NHTI\COURSES\CP222_SPR_2011\LABS\LAB4 - SERIAL PORT\SERIALPORT LOOPBACK SOURCE CODE STARTER\SERIALTESTAPP\WINDOWSAPPLICATION1\FRMMAIN.RESX|C:\USERS\SHOUGH\DOCUMENTS\C DRIVE\MY DOCUMENTS\NHTI\COURSES\CP222_SPR_2011\LABS\LAB4 - SERIAL PORT\SERIALPORT LOOPBACK SOURCE CODE STARTER\SERIALTESTAPP\WINDOWSAPPLICATION1\PROPERTIES\RESOURCES.RESX
C:\USERS\SHOUGH\DOCUMENTS\C DRIVE\MY DOCUMENTS\NHTI\COURSES\CP222_SPR_2011\LABS\LAB4 - SERIAL PORT\SERIALPORT LOOPBACK SOURCE CODE STARTER\SERIALTESTAPP\WINDOWSAPPLICATION1\OBJ\DEBUG\WINDOWSAPPLICATION1.FRMMAIN.RESOURCES
C:\USERS\SHOUGH\DOCUMENTS\C DRIVE\MY DOCUMENTS\NHTI\COURSES\CP222_SPR_2011\LABS\LAB4 - SERIAL PORT\SERIALPORT LOOPBACK SOURCE CODE STARTER\SERIALTESTAPP\WINDOWSAPPLICATION1\OBJ\DEBUG\WINDOWSAPPLICATION1.PROPERTIES.RESOURCES.RESOURCES
